Intro to rtweet
…
You can also reply to a previous tweet, retweet and provide
additional information.

Get friends

Retrieve a list of all the accounts a user
follows.

## get user IDs of accounts followed by R Foundation
R_foundation_fds <- get_friends("_R_Foundation")
R_foundation_fds
#> # A tibble: 30 × 2
#>    from_id       to_id              
#>    <chr>         <chr>              
#>  1 _R_Foundation 1448728978370535426
#>  2 _R_Foundation 889777924991307778 
#>  3 _R_Foundation 1300656590         
#>  4 _R_Foundation 1280779280579022848
#>  5 _R_Foundation 1229418786085888001
#>  6 _R_Foundation 1197874989367779328
#>  7 _R_Foundation 1102763906714554368
#>  8 _R_Foundation 1560929287         
#>  9 _R_Foundation 46782674           
#> 10 _R_Foundation 16284661           
#> # … with 20 more rows
…
We have now the information from those followed by the R Foundation
and its followers. We can retrieve their latest tweets from these
users:

tweets_data(R_foundation_fds_data)[, c("created_at", "text")]
#> # A tibble: 30 × 2
#>    created_at                     text                                                            
#>    <chr>                          <chr>                                                           
#>  1 Thu Dec 01 11:46:14 +0000 2022 "Today! EMEA/APAC office hour has just taken place. AMER office…
#>  2 Wed Sep 28 15:06:22 +0000 2022 "RT @pdalgd: #rstats 4.2.2 \"Innocent and Trusting\"  scheduled…
#>  3 Tue Nov 29 15:55:04 +0000 2022 "@stevenstrogatz Terry Tao also posted a nice note recently htt…
#>  4 Sat Nov 12 16:06:40 +0000 2022 "RT @HeathrTurnr: Wondering about setting up a data science/ope…
#>  5 Fri Jul 29 05:30:06 +0000 2022 "RT @kidssindwichtig: Wenn du in deiner Arbeitszeit noch nie ei…
#>  6 Fri Apr 16 11:03:21 +0000 2021 "RT @_useRconf: It is a good time to remember some of our keyda…
#>  7 Mon Jan 18 17:36:22 +0000 2021 "Give us a follow at @_useRconf to stay updated on *all* future…
#>  8 Sat Dec 17 13:04:43 +0000 2022 "RT @VincentAB: Want to use @jmwooldridge's Extended Two-Way Fi…
#>  9 Mon Dec 19 15:14:15 +0000 2022 "@_ColinFay @rweekly_org That was quick. Thx"                   
#> 10 Mon Dec 19 18:29:22 +0000 2022 "@thomas_mock @posit_pbc OMG! Congratulations!! (Sorry to tell …
#> # … with 20 more rows
…
Get trends

Discover what’s currently trending in San Francisco.

world <- get_trends("world")
world
#> # A tibble: 50 × 9
#>    trend           url   promo…¹ query tweet…² place woeid as_of               created_at         
#>    <chr>           <chr> <lgl>   <chr>   <int> <chr> <int> <dttm>              <dttm>             
#>  1 #MerciLesBleus  http… NA      %23M…      NA Worl…     1 2022-12-20 21:06:02 2022-12-18 11:01:37
#>  2 #CashAppGiftCa… http… NA      %23C…   11513 Worl…     1 2022-12-20 21:06:02 2022-12-18 11:01:37
#>  3 #PromosyonFiya… http… NA      %23P…   16068 Worl…     1 2022-12-20 21:06:02 2022-12-18 11:01:37
#>  4 Berni           http… NA      Berni   12538 Worl…     1 2022-12-20 21:06:02 2022-12-18 11:01:37
#>  5 #المتجر_الالكت… http… NA      %23%…   12029 Worl…     1 2022-12-20 21:06:02 2022-12-18 11:01:37
#>  6 #سعودي_ايدول    http… NA      %23%…      NA Worl…     1 2022-12-20 21:06:02 2022-12-18 11:01:37
#>  7 Rosada          http… NA      Rosa…  115732 Worl…     1 2022-12-20 21:06:02 2022-12-18 11:01:37
#>  8 Larreta         http… NA      Larr…   16698 Worl…     1 2022-12-20 21:06:02 2022-12-18 11:01:37
#>  9 CABA            http… NA      CABA    46767 Worl…     1 2022-12-20 21:06:02 2022-12-18 11:01:37
#> 10 Ochoa           http… NA      Ochoa   19026 Worl…     1 2022-12-20 21:06:02 2022-12-18 11:01:37
#> # … with 40 more rows, and abbreviated variable names ¹​promoted_content, ²​tweet_volume
…
Rate limits

Twitter sets a limited number of calls to their endpoints for
different authentications (check vignette("auth", "rtweet")
to find which one is better for your use case). To consult those limits
you can use rate_limt()

rate_limit()
#> # A tibble: 263 × 5
#>    resource                 limit remaining reset_at            reset  
#>    <chr>                    <int>     <int> <dttm>              <drtn> 
#>  1 /lists/list                 15        15 2022-12-20 22:21:03 15 mins
#>  2 /lists/:id/tweets&GET      900       900 2022-12-20 22:21:03 15 mins
#>  3 /lists/:id/followers&GET   180       180 2022-12-20 22:21:03 15 mins
#>  4 /lists/memberships          75        75 2022-12-20 22:21:03 15 mins
#>  5 /lists/:id&DELETE          300       300 2022-12-20 22:21:03 15 mins
#>  6 /lists/subscriptions        15        15 2022-12-20 22:21:03 15 mins
#>  7 /lists/members             900       900 2022-12-20 22:21:03 15 mins
#>  8 /lists/:id&GET              75        75 2022-12-20 22:21:03 15 mins
#>  9 /lists/subscribers/show     15        15 2022-12-20 22:21:03 15 mins
#> 10 /lists/:id&PUT             300       300 2022-12-20 22:21:03 15 mins
#> # … with 253 more rows
…
